STRUCTURE,STRUCTURE_ID,ACTION,REF_AREA,COUNTERPART_AREA,MEASURE,ACCOUNTING_ENTRY,FS_ENTRY,FREQ,UNIT_MEASURE,ADJUSTMENT,TIME_PERIOD,OBS_VALUE,DECIMALS,UNIT_MULT,CURRENCY,OBS_STATUS
dataflow,OECD.SDD.SDPS:DSD_BOP@DF_IIP(1.0),R,ARG,WXD,FA,N,LE,A,USD_EXC,N,2006,6456.571,2,6,_Z,A
dataflow,OECD.SDD.SDPS:DSD_BOP@DF_IIP(1.0),R,ARG,WXD,FA,N,LE,A,USD_EXC,N,2007,20698.54,2,6,_Z,A
dataflow,OECD.SDD.SDPS:DSD_BOP@DF_IIP(1.0),R,ARG,WXD,FA,N,LE,A,USD_EXC,N,2008,53122.54,2,6,_Z,A
dataflow,OECD.SDD.SDPS:DSD_BOP@DF_IIP(1.0),R,ARG,WXD,FA,N,LE,A,USD_EXC,N,2009,42545.99,2,6,_Z,A
dataflow,OECD.SDD.SDPS:DSD_BOP@DF_IIP(1.0),R,ARG,WXD,FA,N,LE,A,USD_EXC,N,2010,38024.35,2,6,_Z,A
dataflow,OECD.SDD.SDPS:DSD_BOP@DF_IIP(1.0),R,ARG,WXD,FA,N,LE,A,USD_EXC,N,2011,47766.73,2,6,_Z,A
dataflow,OECD.SDD.SDPS:DSD_BOP@DF_IIP(1.0),R,ARG,WXD,FA,N,LE,A,USD_EXC,N,2012,57879.85,2,6,_Z,A
dataflow,OECD.SDD.SDPS:DSD_BOP@DF_IIP(1.0),R,ARG,WXD,FA,N,LE,A,USD_EXC,N,2013,61196.1,2,6,_Z,A
dataflow,OECD.SDD.SDPS:DSD_BOP@DF_IIP(1.0),R,ARG,WXD,FA,N,LE,A,USD_EXC,N,2014,54837.36,2,6,_Z,A
dataflow,OECD.SDD.SDPS:DSD_BOP@DF_IIP(1.0),R,ARG,WXD,FA,N,LE,A,USD_EXC,N,2015,56487.39,2,6,_Z,A
dataflow,OECD.SDD.SDPS:DSD_BOP@DF_IIP(1.0),R,ARG,WXD,FA,N,LE,A,USD_EXC,N,2016,48047.93,2,6,_Z,A
dataflow,OECD.SDD.SDPS:DSD_BOP@DF_IIP(1.0),R,ARG,WXD,FA,N,LE,A,USD_EXC,N,2017,17332.37,2,6,_Z,A
dataflow,OECD.SDD.SDPS:DSD_BOP@DF_IIP(1.0),R,ARG,WXD,FA,N,LE,A,USD_EXC,N,2018,65630.31,2,6,_Z,A
dataflow,OECD.SDD.SDPS:DSD_BOP@DF_IIP(1.0),R,ARG,WXD,FA,N,LE,A,USD_EXC,N,2019,113154.9,2,6,_Z,A
dataflow,OECD.SDD.SDPS:DSD_BOP@DF_IIP(1.0),R,ARG,WXD,FA,N,LE,A,USD_EXC,N,2020,123302.5,2,6,_Z,A
dataflow,OECD.SDD.SDPS:DSD_BOP@DF_IIP(1.0),R,ARG,WXD,FA,N,LE,A,USD_EXC,N,2021,124065.7,2,6,_Z,A
dataflow,OECD.SDD.SDPS:DSD_BOP@DF_IIP(1.0),R,ARG,WXD,FA,N,LE,A,USD_EXC,N,2022,123418.8,2,6,_Z,A
dataflow,OECD.SDD.SDPS:DSD_BOP@DF_IIP(1.0),R,ARG,WXD,FA,N,LE,Q,USD_EXC,N,2006-Q1,6853.67,2,6,_Z,A
dataflow,OECD.SDD.SDPS:DSD_BOP@DF_IIP(1.0),R,ARG,WXD,FA,N,LE,Q,USD_EXC,N,2006-Q2,11157.93,2,6,_Z,A
dataflow,OECD.SDD.SDPS:DSD_BOP@DF_IIP(1.0),R,ARG,WXD,FA,N,LE,Q,USD_EXC,N,2006-Q3,9398.74,2,6,_Z,A
dataflow,OECD.SDD.SDPS:DSD_BOP@DF_IIP(1.0),R,ARG,WXD,FA,N,LE,Q,USD_EXC,N,2006-Q4,6456.57,2,6,_Z,A
dataflow,OECD.SDD.SDPS:DSD_BOP@DF_IIP(1.0),R,ARG,WXD,FA,N,LE,Q,USD_EXC,N,2007-Q1,11916.8,2,6,_Z,A
dataflow,OECD.SDD.SDPS:DSD_BOP@DF_IIP(1.0),R,ARG,WXD,FA,N,LE,Q,USD_EXC,N,2007-Q2,15023.13,2,6,_Z,A
dataflow,OECD.SDD.SDPS:DSD_BOP@DF_IIP(1.0),R,ARG,WXD,FA,N,LE,Q,USD_EXC,N,2007-Q3,20214.9,2,6,_Z,A
dataflow,OECD.SDD.SDPS:DSD_BOP@DF_IIP(1.0),R,ARG,WXD,FA,N,LE,Q,USD_EXC,N,2007-Q4,20698.54,2,6,_Z,A
dataflow,OECD.SDD.SDPS:DSD_BOP@DF_IIP(1.0),R,ARG,WXD,FA,N,LE,Q,USD_EXC,N,2008-Q1,29365.37,2,6,_Z,A
dataflow,OECD.SDD.SDPS:DSD_BOP@DF_IIP(1.0),R,ARG,WXD,FA,N,LE,Q,USD_EXC,N,2008-Q2,31761.17,2,6,_Z,A
dataflow,OECD.SDD.SDPS:DSD_BOP@DF_IIP(1.0),R,ARG,WXD,FA,N,LE,Q,USD_EXC,N,2008-Q3,44133.85,2,6,_Z,A
dataflow,OECD.SDD.SDPS:DSD_BOP@DF_IIP(1.0),R,ARG,WXD,FA,N,LE,Q,USD_EXC,N,2008-Q4,53122.54,2,6,_Z,A
dataflow,OECD.SDD.SDPS:DSD_BOP@DF_IIP(1.0),R,ARG,WXD,FA,N,LE,Q,USD_EXC,N,2009-Q1,57675.1,2,6,_Z,A
dataflow,OECD.SDD.SDPS:DSD_BOP@DF_IIP(1.0),R,ARG,WXD,FA,N,LE,Q,USD_EXC,N,2009-Q2,53163.23,2,6,_Z,A
dataflow,OECD.SDD.SDPS:DSD_BOP@DF_IIP(1.0),R,ARG,WXD,FA,N,LE,Q,USD_EXC,N,2009-Q3,47761.47,2,6,_Z,A
dataflow,OECD.SDD.SDPS:DSD_BOP@DF_IIP(1.0),R,ARG,WXD,FA,N,LE,Q,USD_EXC,N,2009-Q4,42545.99,2,6,_Z,A
dataflow,OECD.SDD.SDPS:DSD_BOP@DF_IIP(1.0),R,ARG,WXD,FA,N,LE,Q,USD_EXC,N,2010-Q1,42415.46,2,6,_Z,A
dataflow,OECD.SDD.SDPS:DSD_BOP@DF_IIP(1.0),R,ARG,WXD,FA,N,LE,Q,USD_EXC,N,2010-Q2,49434.08,2,6,_Z,A
dataflow,OECD.SDD.SDPS:DSD_BOP@DF_IIP(1.0),R,ARG,WXD,FA,N,LE,Q,USD_EXC,N,2010-Q3,42739.28,2,6,_Z,A
dataflow,OECD.SDD.SDPS:DSD_BOP@DF_IIP(1.0),R,ARG,WXD,FA,N,LE,Q,USD_EXC,N,2010-Q4,38024.35,2,6,_Z,A
dataflow,OECD.SDD.SDPS:DSD_BOP@DF_IIP(1.0),R,ARG,WXD,FA,N,LE,Q,USD_EXC,N,2011-Q1,39069.49,2,6,_Z,A
dataflow,OECD.SDD.SDPS:DSD_BOP@DF_IIP(1.0),R,ARG,WXD,FA,N,LE,Q,USD_EXC,N,2011-Q2,41760.86,2,6,_Z,A
dataflow,OECD.SDD.SDPS:DSD_BOP@DF_IIP(1.0),R,ARG,WXD,FA,N,LE,Q,USD_EXC,N,2011-Q3,43265.33,2,6,_Z,A
dataflow,OECD.SDD.SDPS:DSD_BOP@DF_IIP(1.0),R,ARG,WXD,FA,N,LE,Q,USD_EXC,N,2011-Q4,47766.73,2,6,_Z,A
dataflow,OECD.SDD.SDPS:DSD_BOP@DF_IIP(1.0),R,ARG,WXD,FA,N,LE,Q,USD_EXC,N,2012-Q1,50102.08,2,6,_Z,A
dataflow,OECD.SDD.SDPS:DSD_BOP@DF_IIP(1.0),R,ARG,WXD,FA,N,LE,Q,USD_EXC,N,2012-Q2,58582.46,2,6,_Z,A
dataflow,OECD.SDD.SDPS:DSD_BOP@DF_IIP(1.0),R,ARG,WXD,FA,N,LE,Q,USD_EXC,N,2012-Q3,64637.33,2,6,_Z,A
dataflow,OECD.SDD.SDPS:DSD_BOP@DF_IIP(1.0),R,ARG,WXD,FA,N,LE,Q,USD_EXC,N,2012-Q4,57879.85,2,6,_Z,A
dataflow,OECD.SDD.SDPS:DSD_BOP@DF_IIP(1.0),R,ARG,WXD,FA,N,LE,Q,USD_EXC,N,2013-Q1,61025.85,2,6,_Z,A
dataflow,OECD.SDD.SDPS:DSD_BOP@DF_IIP(1.0),R,ARG,WXD,FA,N,LE,Q,USD_EXC,N,2013-Q2,65931.88,2,6,_Z,A
dataflow,OECD.SDD.SDPS:DSD_BOP@DF_IIP(1.0),R,ARG,WXD,FA,N,LE,Q,USD_EXC,N,2013-Q3,64547.25,2,6,_Z,A
dataflow,OECD.SDD.SDPS:DSD_BOP@DF_IIP(1.0),R,ARG,WXD,FA,N,LE,Q,USD_EXC,N,2013-Q4,61196.1,2,6,_Z,A
dataflow,OECD.SDD.SDPS:DSD_BOP@DF_IIP(1.0),R,ARG,WXD,FA,N,LE,Q,USD_EXC,N,2014-Q1,69385.49,2,6,_Z,A
dataflow,OECD.SDD.SDPS:DSD_BOP@DF_IIP(1.0),R,ARG,WXD,FA,N,LE,Q,USD_EXC,N,2014-Q2,60972.65,2,6,_Z,A
dataflow,OECD.SDD.SDPS:DSD_BOP@DF_IIP(1.0),R,ARG,WXD,FA,N,LE,Q,USD_EXC,N,2014-Q3,56055.1,2,6,_Z,A
dataflow,OECD.SDD.SDPS:DSD_BOP@DF_IIP(1.0),R,ARG,WXD,FA,N,LE,Q,USD_EXC,N,2014-Q4,54837.36,2,6,_Z,A
dataflow,OECD.SDD.SDPS:DSD_BOP@DF_IIP(1.0),R,ARG,WXD,FA,N,LE,Q,USD_EXC,N,2015-Q1,48330.15,2,6,_Z,A
dataflow,OECD.SDD.SDPS:DSD_BOP@DF_IIP(1.0),R,ARG,WXD,FA,N,LE,Q,USD_EXC,N,2015-Q2,48887.28,2,6,_Z,A
dataflow,OECD.SDD.SDPS:DSD_BOP@DF_IIP(1.0),R,ARG,WXD,FA,N,LE,Q,USD_EXC,N,2015-Q3,44423.77,2,6,_Z,A
dataflow,OECD.SDD.SDPS:DSD_BOP@DF_IIP(1.0),R,ARG,WXD,FA,N,LE,Q,USD_EXC,N,2015-Q4,56487.39,2,6,_Z,A
dataflow,OECD.SDD.SDPS:DSD_BOP@DF_IIP(1.0),R,ARG,WXD,FA,N,LE,Q,USD_EXC,N,2016-Q1,48511.96,2,6,_Z,A
dataflow,OECD.SDD.SDPS:DSD_BOP@DF_IIP(1.0),R,ARG,WXD,FA,N,LE,Q,USD_EXC,N,2016-Q2,41329.25,2,6,_Z,A
dataflow,OECD.SDD.SDPS:DSD_BOP@DF_IIP(1.0),R,ARG,WXD,FA,N,LE,Q,USD_EXC,N,2016-Q3,39061.35,2,6,_Z,A
dataflow,OECD.SDD.SDPS:DSD_BOP@DF_IIP(1.0),R,ARG,WXD,FA,N,LE,Q,USD_EXC,N,2016-Q4,48047.93,2,6,_Z,A
dataflow,OECD.SDD.SDPS:DSD_BOP@DF_IIP(1.0),R,ARG,WXD,FA,N,LE,Q,USD_EXC,N,2017-Q1,39471.27,2,6,_Z,A
dataflow,OECD.SDD.SDPS:DSD_BOP@DF_IIP(1.0),R,ARG,WXD,FA,N,LE,Q,USD_EXC,N,2017-Q2,36246.23,2,6,_Z,A
dataflow,OECD.SDD.SDPS:DSD_BOP@DF_IIP(1.0),R,ARG,WXD,FA,N,LE,Q,USD_EXC,N,2017-Q3,23338.76,2,6,_Z,A
dataflow,OECD.SDD.SDPS:DSD_BOP@DF_IIP(1.0),R,ARG,WXD,FA,N,LE,Q,USD_EXC,N,2017-Q4,17332.37,2,6,_Z,A
dataflow,OECD.SDD.SDPS:DSD_BOP@DF_IIP(1.0),R,ARG,WXD,FA,N,LE,Q,USD_EXC,N,2018-Q1,20593.67,2,6,_Z,A
dataflow,OECD.SDD.SDPS:DSD_BOP@DF_IIP(1.0),R,ARG,WXD,FA,N,LE,Q,USD_EXC,N,2018-Q2,52968.85,2,6,_Z,A
dataflow,OECD.SDD.SDPS:DSD_BOP@DF_IIP(1.0),R,ARG,WXD,FA,N,LE,Q,USD_EXC,N,2018-Q3,71834.21,2,6,_Z,A
dataflow,OECD.SDD.SDPS:DSD_BOP@DF_IIP(1.0),R,ARG,WXD,FA,N,LE,Q,USD_EXC,N,2018-Q4,65630.31,2,6,_Z,A
dataflow,OECD.SDD.SDPS:DSD_BOP@DF_IIP(1.0),R,ARG,WXD,FA,N,LE,Q,USD_EXC,N,2019-Q1,66667.05,2,6,_Z,A
dataflow,OECD.SDD.SDPS:DSD_BOP@DF_IIP(1.0),R,ARG,WXD,FA,N,LE,Q,USD_EXC,N,2019-Q2,64020.59,2,6,_Z,A
dataflow,OECD.SDD.SDPS:DSD_BOP@DF_IIP(1.0),R,ARG,WXD,FA,N,LE,Q,USD_EXC,N,2019-Q3,118013.1,2,6,_Z,A
dataflow,OECD.SDD.SDPS:DSD_BOP@DF_IIP(1.0),R,ARG,WXD,FA,N,LE,Q,USD_EXC,N,2019-Q4,113154.9,2,6,_Z,A
dataflow,OECD.SDD.SDPS:DSD_BOP@DF_IIP(1.0),R,ARG,WXD,FA,N,LE,Q,USD_EXC,N,2020-Q1,118049.7,2,6,_Z,A
dataflow,OECD.SDD.SDPS:DSD_BOP@DF_IIP(1.0),R,ARG,WXD,FA,N,LE,Q,USD_EXC,N,2020-Q2,120563,2,6,_Z,A
dataflow,OECD.SDD.SDPS:DSD_BOP@DF_IIP(1.0),R,ARG,WXD,FA,N,LE,Q,USD_EXC,N,2020-Q3,121533.7,2,6,_Z,A
dataflow,OECD.SDD.SDPS:DSD_BOP@DF_IIP(1.0),R,ARG,WXD,FA,N,LE,Q,USD_EXC,N,2020-Q4,123302.5,2,6,_Z,A
dataflow,OECD.SDD.SDPS:DSD_BOP@DF_IIP(1.0),R,ARG,WXD,FA,N,LE,Q,USD_EXC,N,2021-Q1,130064.8,2,6,_Z,A
dataflow,OECD.SDD.SDPS:DSD_BOP@DF_IIP(1.0),R,ARG,WXD,FA,N,LE,Q,USD_EXC,N,2021-Q2,129813.3,2,6,_Z,A
dataflow,OECD.SDD.SDPS:DSD_BOP@DF_IIP(1.0),R,ARG,WXD,FA,N,LE,Q,USD_EXC,N,2021-Q3,125021.5,2,6,_Z,A
dataflow,OECD.SDD.SDPS:DSD_BOP@DF_IIP(1.0),R,ARG,WXD,FA,N,LE,Q,USD_EXC,N,2021-Q4,124065.7,2,6,_Z,A
dataflow,OECD.SDD.SDPS:DSD_BOP@DF_IIP(1.0),R,ARG,WXD,FA,N,LE,Q,USD_EXC,N,2022-Q1,118324,2,6,_Z,A
dataflow,OECD.SDD.SDPS:DSD_BOP@DF_IIP(1.0),R,ARG,WXD,FA,N,LE,Q,USD_EXC,N,2022-Q2,118701.4,2,6,_Z,A
dataflow,OECD.SDD.SDPS:DSD_BOP@DF_IIP(1.0),R,ARG,WXD,FA,N,LE,Q,USD_EXC,N,2022-Q3,115578,2,6,_Z,A
dataflow,OECD.SDD.SDPS:DSD_BOP@DF_IIP(1.0),R,ARG,WXD,FA,N,LE,Q,USD_EXC,N,2022-Q4,123418.8,2,6,_Z,A
dataflow,OECD.SDD.SDPS:DSD_BOP@DF_IIP(1.0),R,ARG,WXD,FA,N,LE,Q,USD_EXC,N,2023-Q1,103743.3,2,6,_Z,A
dataflow,OECD.SDD.SDPS:DSD_BOP@DF_IIP(1.0),R,ARG,WXD,FA,N,LE,Q,USD_EXC,N,2023-Q2,92928.34,2,6,_Z,A
dataflow,OECD.SDD.SDPS:DSD_BOP@DF_IIP(1.0),R,AUS,WXD,FA,N,LE,A,USD_EXC,N,1988,-106368,2,6,_Z,A
dataflow,OECD.SDD.SDPS:DSD_BOP@DF_IIP(1.0),R,AUS,WXD,FA,N,LE,A,USD_EXC,N,1989,-130705.6,2,6,_Z,A
dataflow,OECD.SDD.SDPS:DSD_BOP@DF_IIP(1.0),R,AUS,WXD,FA,N,LE,A,USD_EXC,N,1990,-144902.4,2,6,_Z,A
dataflow,OECD.SDD.SDPS:DSD_BOP@DF_IIP(1.0),R,AUS,WXD,FA,N,LE,A,USD_EXC,N,1991,-157319,2,6,_Z,A
dataflow,OECD.SDD.SDPS:DSD_BOP@DF_IIP(1.0),R,AUS,WXD,FA,N,LE,A,USD_EXC,N,1992,-157634.2,2,6,_Z,A
dataflow,OECD.SDD.SDPS:DSD_BOP@DF_IIP(1.0),R,AUS,WXD,FA,N,LE,A,USD_EXC,N,1993,-165969.2,2,6,_Z,A
dataflow,OECD.SDD.SDPS:DSD_BOP@DF_IIP(1.0),R,AUS,WXD,FA,N,LE,A,USD_EXC,N,1994,-181093.6,2,6,_Z,A
dataflow,OECD.SDD.SDPS:DSD_BOP@DF_IIP(1.0),R,AUS,WXD,FA,N,LE,A,USD_EXC,N,1995,-202748.2,2,6,_Z,A
dataflow,OECD.SDD.SDPS:DSD_BOP@DF_IIP(1.0),R,AUS,WXD,FA,N,LE,A,USD_EXC,N,1996,-225419.5,2,6,_Z,A
dataflow,OECD.SDD.SDPS:DSD_BOP@DF_IIP(1.0),R,AUS,WXD,FA,N,LE,A,USD_EXC,N,1997,-214617,2,6,_Z,A
dataflow,OECD.SDD.SDPS:DSD_BOP@DF_IIP(1.0),R,AUS,WXD,FA,N,LE,A,USD_EXC,N,1998,-202064.9,2,6,_Z,A
dataflow,OECD.SDD.SDPS:DSD_BOP@DF_IIP(1.0),R,AUS,WXD,FA,N,LE,A,USD_EXC,N,1999,-219160.2,2,6,_Z,A
dataflow,OECD.SDD.SDPS:DSD_BOP@DF_IIP(1.0),R,AUS,WXD,FA,N,LE,A,USD_EXC,N,2000,-209513.7,2,6,_Z,A
