STRUCTURE,STRUCTURE_ID,ACTION,REF_AREA,COUNTERPART_AREA,MEASURE,ACCOUNTING_ENTRY,FS_ENTRY,FREQ,UNIT_MEASURE,ADJUSTMENT,TIME_PERIOD,OBS_VALUE
dataflow,OECD.SDD.SDPS:DSD_BOP@DF_IIP(1.0),D,DNK,WXD,FA_O_F519,L,LE,Q,XDC,N,2005-Q1,0
dataflow,OECD.SDD.SDPS:DSD_BOP@DF_IIP(1.0),D,DNK,WXD,FA_O_F519,L,LE,Q,XDC,N,2005-Q2,0
dataflow,OECD.SDD.SDPS:DSD_BOP@DF_IIP(1.0),D,DNK,WXD,FA_O_F519,L,LE,Q,XDC,N,2005-Q3,0
dataflow,OECD.SDD.SDPS:DSD_BOP@DF_IIP(1.0),D,DNK,WXD,FA_O_F519,L,LE,Q,XDC,N,2005-Q4,0
dataflow,OECD.SDD.SDPS:DSD_BOP@DF_IIP(1.0),D,DNK,WXD,FA_O_F519,L,LE,Q,XDC,N,2006-Q1,0
dataflow,OECD.SDD.SDPS:DSD_BOP@DF_IIP(1.0),D,DNK,WXD,FA_O_F519,L,LE,Q,XDC,N,2006-Q2,0
dataflow,OECD.SDD.SDPS:DSD_BOP@DF_IIP(1.0),D,DNK,WXD,FA_O_F519,L,LE,Q,XDC,N,2006-Q3,0
dataflow,OECD.SDD.SDPS:DSD_BOP@DF_IIP(1.0),D,DNK,WXD,FA_O_F519,L,LE,Q,XDC,N,2006-Q4,0
dataflow,OECD.SDD.SDPS:DSD_BOP@DF_IIP(1.0),D,DNK,WXD,FA_O_F519,L,LE,Q,XDC,N,2007-Q1,0
dataflow,OECD.SDD.SDPS:DSD_BOP@DF_IIP(1.0),D,DNK,WXD,FA_O_F519,L,LE,Q,XDC,N,2007-Q2,0
dataflow,OECD.SDD.SDPS:DSD_BOP@DF_IIP(1.0),D,DNK,WXD,FA_O_F519,L,LE,Q,XDC,N,2007-Q3,0
dataflow,OECD.SDD.SDPS:DSD_BOP@DF_IIP(1.0),D,DNK,WXD,FA_O_F519,L,LE,Q,XDC,N,2007-Q4,0
dataflow,OECD.SDD.SDPS:DSD_BOP@DF_IIP(1.0),D,DNK,WXD,FA_O_F519,L,LE,Q,XDC,N,2008-Q1,0
dataflow,OECD.SDD.SDPS:DSD_BOP@DF_IIP(1.0),D,DNK,WXD,FA_O_F519,L,LE,Q,XDC,N,2008-Q2,0
dataflow,OECD.SDD.SDPS:DSD_BOP@DF_IIP(1.0),D,DNK,WXD,FA_O_F519,L,LE,Q,XDC,N,2008-Q3,0
dataflow,OECD.SDD.SDPS:DSD_BOP@DF_IIP(1.0),D,DNK,WXD,FA_O_F519,L,LE,Q,XDC,N,2008-Q4,0
dataflow,OECD.SDD.SDPS:DSD_BOP@DF_IIP(1.0),D,DNK,WXD,FA_O_F519,L,LE,Q,XDC,N,2009-Q1,0
dataflow,OECD.SDD.SDPS:DSD_BOP@DF_IIP(1.0),D,DNK,WXD,FA_O_F519,L,LE,Q,XDC,N,2009-Q2,0
dataflow,OECD.SDD.SDPS:DSD_BOP@DF_IIP(1.0),D,DNK,WXD,FA_O_F519,L,LE,Q,XDC,N,2009-Q3,0
dataflow,OECD.SDD.SDPS:DSD_BOP@DF_IIP(1.0),D,DNK,WXD,FA_O_F519,L,LE,Q,XDC,N,2009-Q4,0
dataflow,OECD.SDD.SDPS:DSD_BOP@DF_IIP(1.0),D,DNK,WXD,FA_O_F519,L,LE,Q,XDC,N,2010-Q1,0
dataflow,OECD.SDD.SDPS:DSD_BOP@DF_IIP(1.0),D,DNK,WXD,FA_O_F519,L,LE,Q,XDC,N,2010-Q2,0
dataflow,OECD.SDD.SDPS:DSD_BOP@DF_IIP(1.0),D,DNK,WXD,FA_O_F519,L,LE,Q,XDC,N,2010-Q3,0
dataflow,OECD.SDD.SDPS:DSD_BOP@DF_IIP(1.0),D,DNK,WXD,FA_O_F519,L,LE,Q,XDC,N,2010-Q4,0
